[
  {
    "id":35,
    "name": "Java Exercises",
    "start": "06:00",
    "duration": 300,
    "seating": 100
  },
  {
    "id":40,
    "name": "Yoga",
    "start": "22:00",
    "duration": 45,
    "seating": 30
  },
  {
    "id":10,
    "name": "Musculation",
    "start": "03:00",
    "duration": 5,
    "seating": 1
  },
  {
    "id":4,
    "name": "Body Tone",
    "start": "13:00",
    "duration": 30,
    "seating": 12
  },
  {
    "id":13,
    "name": "Pilates",
    "start": "10:00",
    "duration": 120,
    "seating": 5
  },
  {
    "id":2,
    "name": "Spinning",
    "start": "20:00",
    "duration": 100,
    "seating": 20
  }
]